{
  "type": "service_account",
  "project_id": "arcadefep",
  "private_key_id": "cea5d99aec6f8e88a0f67bf1cae78a25f9916070",
  "private_key": "-----BEGIN PRIVATE KEY-----\nMIIEvgIBADANBgkqhkiG9w0BAQEFAASCBKgwggSkAgEAAoIBAQCfB6nGlGJp5jYH\nL2rGZi+igYKfj1CYLd1p42uRY+PCW2S/JgPQVWsnk88MmdA08FA3ugG0T6bV9MxF\n2ifxkfpi852YF5+NwfCVBpyCMSAgatmzj2hCitRUdPeDWuxgOHTBtu4aL5pwim8C\n8Iisk1yUFpNuIZPj52iYuaaPEkM5mDg+LnW+NG26ksf0woz1CoRuxeuc/llglMGV\nPgDzj/ICmIc6n2UF0vyO9oH/uOpcPw+w7F24muupD2NC1wAJVOtKy5ngjdxkvoBy\nZz21DTdAXWjjjFpS3wBoWwkWYViwMy7InyOI/ge5w2KQ9lwqaZEauW55OTPYCNBZ\nf7KFsnnFAgMBAAECggEAFWjbs29QnH8wsODyWAlzykXzRvXtXL93+oRye91d0VGq\ni41boBWP2oEss76VaDseIZJ6HkNG67EMOy82h3AmrGGtyscLZPNCJ13/fguNDrAz\n5Neeqq60DTa+B8Ia5o1TMq0k+wODoDkS3utxCwK/yPQNHxuIJHuH+l+sC8DiqgMc\n2+iP0HfilsMKq5YkQFxoDh1ORB+FOGNJnehiaTP0dFYVzdHWdqJqAr0EgIucsjP+\nqRJp7VwBMmpaReL6HSBcBMBcO1U3+xE9+WchdN+GJ5VByh+IkNaPYBimHYMjTOOJ\n2pupgstlNLmrASVkbPooFklvt+9pP+dC0vxXZ89w4QKBgQDQcAIgfCyff670oO8M\nZghYaGaPJrnfna6v8Hsldh3QJYg0vv2DVQ4j5HYf231vh5l9Xhmal6htiqsH+CNE\npPP3hsL0oa+6dmmGB3z88OfmoxSbyxKLTGb/UVScD+9kxT1CNTD7+vF9W/+c7uKP\n5rH3fG6wxbv13aGvMOb1SZKsTQKBgQDDUXuygvIon0r2KATVH3wF8SbqcwYkK2Vx\n6PJRGZ+Ub4QldE1LYPO3S1TLtgefc/o91GcHfqr7veaksWh+82FardOE9fCTuEU4\nyAV5JHKF8OTVWpeACROTrx8VIkNjmJdt8ypBeymzXG8G3UkcbCW13buUmuF0bih+\nb1ShJNRfWQKBgQCOc96gQP1mTKdPvSVi/eC6Oy/MqhTihSu8RsiDA8TAWsZJ9jXg\nqiKt2Rf6EdIahTwbeFJbW0bbBqh5G9dOtMWf59QZyN8GuqLH3RpI7IQxFkehahpU\nZXUHDZibyDA+WKbTNvMxY4HjwRpjMMhavLnogHxOB/W7xSsZRnyyKwQ5CQKBgHAn\nWeAnUOYCkgjG8f9vFMhUsQPvCJe8U4QVPw9Sp0+UuUzIe5nNEiUuHILdA4OMFSVr\n0b17/rKPWOE4/cfn+P8Y0VyH3Jz2MsloEbx+MUS4Dq50VoourA8hf7ei9Q87j7iS\n6LCxCED10sseRd0MPJsxt4SdathwaNAxHWdqvogBAoGBALAv/ViYjJ0exMdSZs90\nKbpEdjffT0kUti5QZPUZfF7vXwlPeJ9g/WOpTh/8+TdNyt2bI5LUyYTCyJWJOpoc\nyv8K0l7kFmd9aAQB32IS/O0rTJeXk8iSCKgM6lrmwTBv0cMclduD8hhhRjFzvexg\n0pijqzZlLAYHgpIhzR4bt2Q9\n-----END PRIVATE KEY-----\n",
  "client_email": "firebase-adminsdk-weo3n@arcadefep.iam.gserviceaccount.com",
  "client_id": "115899022396544261151",
  "auth_uri": "https://accounts.google.com/o/oauth2/auth",
  "token_uri": "https://accounts.google.com/o/oauth2/token",
  "auth_provider_x509_cert_url": "https://www.googleapis.com/oauth2/v1/certs",
  "client_x509_cert_url": "https://www.googleapis.com/robot/v1/metadata/x509/firebase-adminsdk-weo3n%40arcadefep.iam.gserviceaccount.com"
}
